{
    "/lti/tool/jwks/": {
        "get": {
            "operationId": 1,
            "summary": "",
            "description": "Get list",
            "parameters": [
                {
                    "description": "Language letter code (depending on setup: en, es, de, ar, eng, spa, es_AR, en_US)",
                    "in": "header",
                    "name": "Accept-Language",
                    "example": "en",
                    "required": false,
                    "schema": {
                        "type": "string"
                    }
                }
            ],
            "tags": [
                "ToolJwks"
            ],
            "responses": {
                "200": {
                    "description": "OK",
                    "content": {
                        "application/json": {
                            "schema": {
                                "type": "object",
                                "description": "Get list",
                                "properties": {
                                    "keys": {
                                        "type": "array",
                                        "items": {
                                            "type": "object",
                                            "properties": {
                                                "kty": {
                                                    "type": "string",
                                                    "example": "RSA"
                                                },
                                                "alg": {
                                                    "type": "string",
                                                    "example": "RS256"
                                                },
                                                "use": {
                                                    "type": "string",
                                                    "example": "sig"
                                                },
                                                "e": {
                                                    "type": "string",
                                                    "example": "AQAB"
                                                },
                                                "n": {
                                                    "type": "string",
                                                    "example": "8osiSa75nmqmakwNNocLA2N2huWM9At_tjSZOFX1r4-PDclSzxhMw-ZcgHH-E_05Ec6Vcfd75i8Z-Bxu4ctbYk2FNIvRMN5UgWqxZ5Pf70n8UFxjGqdwhUA7_n5KOFoUd9F6wLKa6Oh3OzE6v9-O3y6qL40XhZxNrJjCqxSEkLkOK3xJ0J2npuZ59kipDEDZkRTWz3al09wQ0nvAgCc96DGH-jCgy0msA0OZQ9SmDE9CCMbDT86ogLugPFCvo5g5zqBBX9Ak3czsuLS6Ni9Wco8ZSxoaCIsPXK0RJpt6Jvbjclqb4imsobifxy5LsAV0l_weNWmU2DpzJsLgeK6VVw"
                                                },
                                                "kid": {
                                                    "type": "string",
                                                    "example": "7c59cfe9-8c78-478e-bb7d-ecf0d99a7cba"
                                                }
                                            }
                                        }
                                    }
                                }
                            }
                        }
                    }
                }
            }
        }
    }
}